<?xml version="1.0"?>
<svg xmlns="http://www.w3.org/2000/svg" xmlns:xlink="http://www.w3.org/1999/xlink" version="1.1" id="Capa_1" x="0px" y="0px" width="512px" height="512px" viewBox="0 0 510 510" style="enable-background:new 0 0 510 510;" xml:space="preserve" class=""><g><g>
	<g id="star">
		<polygon points="255,402.212 412.59,497.25 370.897,318.011 510,197.472 326.63,181.738 255,12.75 183.371,181.738 0,197.472     139.103,318.011 97.41,497.25   " data-original="#000000" class="active-path" data-old_color="#c0c0c0" fill="#c0c0c0"/>
	</g>
</g></g> </svg>
